0.000000000000000000e+00
2.400000000000000000e+01
6.000000000000000000e+01
8.400000000000000000e+01
1.200000000000000000e+02
1.440000000000000000e+02
1.800000000000000000e+02
2.040000000000000000e+02
2.400000000000000000e+02
2.640000000000000000e+02
3.000000000000000000e+02
3.240000000000000000e+02
3.600000000000000000e+02
3.840000000000000000e+02
4.200000000000000000e+02
4.440000000000000000e+02
4.800000000000000000e+02
5.040000000000000000e+02
5.400000000000000000e+02
5.640000000000000000e+02
6.000000000000000000e+02
6.240000000000000000e+02
6.600000000000000000e+02
6.840000000000000000e+02
7.200000000000000000e+02
7.440000000000000000e+02
7.800000000000000000e+02
8.040000000000000000e+02
8.400000000000000000e+02
8.640000000000000000e+02
9.000000000000000000e+02
9.240000000000000000e+02
9.600000000000000000e+02
9.840000000000000000e+02
1.020000000000000000e+03
1.044000000000000000e+03
1.080000000000000000e+03
1.104000000000000000e+03
1.140000000000000000e+03
1.164000000000000000e+03
1.200000000000000000e+03
1.224000000000000000e+03
1.260000000000000000e+03
1.284000000000000000e+03
1.320000000000000000e+03
1.344000000000000000e+03
1.380000000000000000e+03
1.404000000000000000e+03
1.440000000000000000e+03
1.464000000000000000e+03
1.500000000000000000e+03
1.524000000000000000e+03
1.560000000000000000e+03
1.584000000000000000e+03
1.620000000000000000e+03
1.644000000000000000e+03
1.680000000000000000e+03
1.704000000000000000e+03
1.740000000000000000e+03
1.764000000000000000e+03
1.800000000000000000e+03
1.824000000000000000e+03
1.860000000000000000e+03
1.884000000000000000e+03
1.920000000000000000e+03
1.944000000000000000e+03
1.980000000000000000e+03
2.004000000000000000e+03
2.040000000000000000e+03
2.064000000000000000e+03
2.100000000000000000e+03
2.124000000000000000e+03
2.160000000000000000e+03
2.184000000000000000e+03
2.220000000000000000e+03
2.244000000000000000e+03
2.280000000000000000e+03
2.304000000000000000e+03
2.340000000000000000e+03
2.364000000000000000e+03
2.400000000000000000e+03
2.424000000000000000e+03
2.460000000000000000e+03
2.484000000000000000e+03
2.520000000000000000e+03
2.544000000000000000e+03
2.580000000000000000e+03
2.604000000000000000e+03
2.640000000000000000e+03
2.664000000000000000e+03
2.700000000000000000e+03
2.724000000000000000e+03
2.760000000000000000e+03
2.784000000000000000e+03
2.820000000000000000e+03
2.844000000000000000e+03
2.880000000000000000e+03
2.904000000000000000e+03
2.940000000000000000e+03
2.964000000000000000e+03
3.000000000000000000e+03
3.024000000000000000e+03
3.060000000000000000e+03
3.084000000000000000e+03
3.120000000000000000e+03
3.144000000000000000e+03
3.180000000000000000e+03
3.204000000000000000e+03
3.240000000000000000e+03
3.264000000000000000e+03
3.300000000000000000e+03
3.324000000000000000e+03
3.360000000000000000e+03
3.384000000000000000e+03
3.420000000000000000e+03
3.444000000000000000e+03
3.480000000000000000e+03
3.504000000000000000e+03
3.540000000000000000e+03
3.564000000000000000e+03
3.600000000000000000e+03
3.624000000000000000e+03
3.660000000000000000e+03
3.684000000000000000e+03
3.720000000000000000e+03
3.744000000000000000e+03
3.780000000000000000e+03
3.804000000000000000e+03
3.840000000000000000e+03
3.864000000000000000e+03
3.900000000000000000e+03
3.924000000000000000e+03
3.960000000000000000e+03
3.984000000000000000e+03
4.020000000000000000e+03
4.044000000000000000e+03
4.080000000000000000e+03
4.104000000000000000e+03
4.140000000000000000e+03
4.164000000000000000e+03
4.200000000000000000e+03
4.224000000000000000e+03
4.260000000000000000e+03
4.284000000000000000e+03
4.320000000000000000e+03
4.344000000000000000e+03
4.380000000000000000e+03
4.404000000000000000e+03
4.440000000000000000e+03
4.464000000000000000e+03
4.500000000000000000e+03
4.524000000000000000e+03
4.560000000000000000e+03
4.584000000000000000e+03
4.620000000000000000e+03
4.644000000000000000e+03
4.680000000000000000e+03
4.704000000000000000e+03
4.740000000000000000e+03
4.764000000000000000e+03
4.800000000000000000e+03
4.824000000000000000e+03
4.860000000000000000e+03
4.884000000000000000e+03
4.920000000000000000e+03
4.944000000000000000e+03
4.980000000000000000e+03
5.004000000000000000e+03
5.040000000000000000e+03
5.064000000000000000e+03
5.100000000000000000e+03
5.124000000000000000e+03
5.160000000000000000e+03
5.184000000000000000e+03
5.220000000000000000e+03
5.244000000000000000e+03
5.280000000000000000e+03
5.304000000000000000e+03
5.340000000000000000e+03
5.364000000000000000e+03
5.400000000000000000e+03
5.424000000000000000e+03
5.460000000000000000e+03
5.484000000000000000e+03
5.520000000000000000e+03
5.544000000000000000e+03
5.580000000000000000e+03
5.604000000000000000e+03
5.640000000000000000e+03
5.664000000000000000e+03
5.700000000000000000e+03
5.724000000000000000e+03
5.760000000000000000e+03
5.784000000000000000e+03
5.820000000000000000e+03
5.844000000000000000e+03
5.880000000000000000e+03
5.904000000000000000e+03
5.940000000000000000e+03
5.964000000000000000e+03
6.000000000000000000e+03
6.024000000000000000e+03
6.060000000000000000e+03
6.084000000000000000e+03
6.120000000000000000e+03
6.144000000000000000e+03
6.180000000000000000e+03
6.204000000000000000e+03
6.240000000000000000e+03
6.264000000000000000e+03
6.300000000000000000e+03
6.324000000000000000e+03
6.360000000000000000e+03
6.384000000000000000e+03
6.420000000000000000e+03
6.444000000000000000e+03
6.480000000000000000e+03
6.504000000000000000e+03
6.540000000000000000e+03
6.564000000000000000e+03
6.600000000000000000e+03
6.624000000000000000e+03
6.660000000000000000e+03
6.684000000000000000e+03
6.720000000000000000e+03
6.744000000000000000e+03
6.780000000000000000e+03
6.804000000000000000e+03
6.840000000000000000e+03
6.864000000000000000e+03
6.900000000000000000e+03
6.924000000000000000e+03
6.960000000000000000e+03
6.984000000000000000e+03
7.020000000000000000e+03
7.044000000000000000e+03
7.080000000000000000e+03
7.104000000000000000e+03
7.140000000000000000e+03
7.164000000000000000e+03
7.200000000000000000e+03
7.224000000000000000e+03
7.260000000000000000e+03
7.284000000000000000e+03
7.320000000000000000e+03
7.344000000000000000e+03
7.380000000000000000e+03
7.404000000000000000e+03
7.440000000000000000e+03
7.464000000000000000e+03
7.500000000000000000e+03
7.524000000000000000e+03
7.560000000000000000e+03
7.584000000000000000e+03
7.620000000000000000e+03
7.644000000000000000e+03
7.680000000000000000e+03
7.704000000000000000e+03
7.740000000000000000e+03
7.764000000000000000e+03
7.800000000000000000e+03
7.824000000000000000e+03
7.860000000000000000e+03
7.884000000000000000e+03
7.920000000000000000e+03
7.944000000000000000e+03
7.980000000000000000e+03
8.004000000000000000e+03
8.040000000000000000e+03
8.064000000000000000e+03
8.100000000000000000e+03
8.124000000000000000e+03
8.160000000000000000e+03
8.184000000000000000e+03
8.220000000000000000e+03
8.244000000000000000e+03
8.280000000000000000e+03
8.304000000000000000e+03
8.340000000000000000e+03
8.364000000000000000e+03
8.400000000000000000e+03
8.424000000000000000e+03
8.460000000000000000e+03
8.484000000000000000e+03
8.520000000000000000e+03
8.544000000000000000e+03
8.580000000000000000e+03
8.604000000000000000e+03
8.640000000000000000e+03
8.664000000000000000e+03
8.700000000000000000e+03
8.724000000000000000e+03
8.760000000000000000e+03
8.784000000000000000e+03
8.820000000000000000e+03
8.844000000000000000e+03
8.880000000000000000e+03
8.904000000000000000e+03
8.940000000000000000e+03
8.964000000000000000e+03
9.000000000000000000e+03
9.024000000000000000e+03
9.060000000000000000e+03
9.084000000000000000e+03
9.120000000000000000e+03
9.144000000000000000e+03
9.180000000000000000e+03
9.204000000000000000e+03
9.240000000000000000e+03
9.264000000000000000e+03
9.300000000000000000e+03
9.324000000000000000e+03
9.360000000000000000e+03
9.384000000000000000e+03
9.420000000000000000e+03
9.444000000000000000e+03
9.480000000000000000e+03
9.504000000000000000e+03
9.540000000000000000e+03
9.564000000000000000e+03
9.600000000000000000e+03
9.624000000000000000e+03
9.660000000000000000e+03
9.684000000000000000e+03
9.720000000000000000e+03
9.744000000000000000e+03
9.780000000000000000e+03
9.804000000000000000e+03
9.840000000000000000e+03
9.864000000000000000e+03
9.900000000000000000e+03
9.924000000000000000e+03
9.960000000000000000e+03
9.984000000000000000e+03
1.002000000000000000e+04
1.004400000000000000e+04
1.008000000000000000e+04
1.010400000000000000e+04
1.014000000000000000e+04
1.016400000000000000e+04
1.020000000000000000e+04
1.022400000000000000e+04
1.026000000000000000e+04
1.028400000000000000e+04
1.032000000000000000e+04
1.034400000000000000e+04
1.038000000000000000e+04
1.040400000000000000e+04
1.044000000000000000e+04
1.046400000000000000e+04
1.050000000000000000e+04
1.052400000000000000e+04
1.056000000000000000e+04
1.058400000000000000e+04
1.062000000000000000e+04
1.064400000000000000e+04
1.068000000000000000e+04
1.070400000000000000e+04
1.074000000000000000e+04
1.076400000000000000e+04
1.080000000000000000e+04
1.082400000000000000e+04
1.086000000000000000e+04
1.088400000000000000e+04
1.092000000000000000e+04
1.094400000000000000e+04
1.098000000000000000e+04
1.100400000000000000e+04
1.104000000000000000e+04
1.106400000000000000e+04
1.110000000000000000e+04
1.112400000000000000e+04
1.116000000000000000e+04
1.118400000000000000e+04
1.122000000000000000e+04
1.124400000000000000e+04
1.128000000000000000e+04
1.130400000000000000e+04
1.134000000000000000e+04
1.136400000000000000e+04
1.140000000000000000e+04
1.142400000000000000e+04
1.146000000000000000e+04
1.148400000000000000e+04
1.152000000000000000e+04
1.154400000000000000e+04
1.158000000000000000e+04
1.160400000000000000e+04
1.164000000000000000e+04
1.166400000000000000e+04
1.170000000000000000e+04
1.172400000000000000e+04
1.176000000000000000e+04
1.178400000000000000e+04
1.182000000000000000e+04
1.184400000000000000e+04
1.188000000000000000e+04
1.190400000000000000e+04
1.194000000000000000e+04
1.196400000000000000e+04
1.200000000000000000e+04
1.202400000000000000e+04
1.206000000000000000e+04
1.208400000000000000e+04
1.212000000000000000e+04
1.214400000000000000e+04
1.218000000000000000e+04
1.220400000000000000e+04
1.224000000000000000e+04
1.226400000000000000e+04
1.230000000000000000e+04
1.232400000000000000e+04
1.236000000000000000e+04
1.238400000000000000e+04
1.242000000000000000e+04
1.244400000000000000e+04
1.248000000000000000e+04
1.250400000000000000e+04
1.254000000000000000e+04
1.256400000000000000e+04
1.260000000000000000e+04
1.262400000000000000e+04
1.266000000000000000e+04
1.268400000000000000e+04
1.272000000000000000e+04
1.274400000000000000e+04
1.278000000000000000e+04
1.280400000000000000e+04
1.284000000000000000e+04
1.286400000000000000e+04
1.290000000000000000e+04
1.292400000000000000e+04
1.296000000000000000e+04
1.298400000000000000e+04
1.302000000000000000e+04
1.304400000000000000e+04
1.308000000000000000e+04
1.310400000000000000e+04
1.314000000000000000e+04
1.316400000000000000e+04
1.320000000000000000e+04
1.322400000000000000e+04
1.326000000000000000e+04
1.328400000000000000e+04
1.332000000000000000e+04
1.334400000000000000e+04
1.338000000000000000e+04
1.340400000000000000e+04
1.344000000000000000e+04
1.346400000000000000e+04
1.350000000000000000e+04
1.352400000000000000e+04
1.356000000000000000e+04
1.358400000000000000e+04
1.362000000000000000e+04
1.364400000000000000e+04
1.368000000000000000e+04
1.370400000000000000e+04
1.374000000000000000e+04
1.376400000000000000e+04
1.380000000000000000e+04
1.382400000000000000e+04
1.386000000000000000e+04
1.388400000000000000e+04
1.392000000000000000e+04
1.394400000000000000e+04
1.398000000000000000e+04
1.400400000000000000e+04
1.404000000000000000e+04
1.406400000000000000e+04
1.410000000000000000e+04
1.412400000000000000e+04
1.416000000000000000e+04
1.418400000000000000e+04
1.422000000000000000e+04
1.424400000000000000e+04
1.428000000000000000e+04
1.430400000000000000e+04
1.434000000000000000e+04
1.436400000000000000e+04
1.440000000000000000e+04
1.442400000000000000e+04
1.446000000000000000e+04
1.448400000000000000e+04
1.452000000000000000e+04
1.454400000000000000e+04
1.458000000000000000e+04
1.460400000000000000e+04
1.464000000000000000e+04
1.466400000000000000e+04
1.470000000000000000e+04
1.472400000000000000e+04
1.476000000000000000e+04
1.478400000000000000e+04
1.482000000000000000e+04
1.484400000000000000e+04
1.488000000000000000e+04
1.490400000000000000e+04
1.494000000000000000e+04
1.496400000000000000e+04
1.500000000000000000e+04
1.502400000000000000e+04
1.506000000000000000e+04
1.508400000000000000e+04
1.512000000000000000e+04
1.514400000000000000e+04
1.518000000000000000e+04
1.520400000000000000e+04
1.524000000000000000e+04
1.526400000000000000e+04
1.530000000000000000e+04
1.532400000000000000e+04
1.536000000000000000e+04
1.538400000000000000e+04
1.542000000000000000e+04
1.544400000000000000e+04
1.548000000000000000e+04
1.550400000000000000e+04
1.554000000000000000e+04
1.556400000000000000e+04
1.560000000000000000e+04
1.562400000000000000e+04
1.566000000000000000e+04
1.568400000000000000e+04
1.572000000000000000e+04
1.574400000000000000e+04
1.578000000000000000e+04
1.580400000000000000e+04
1.584000000000000000e+04
1.586400000000000000e+04
1.590000000000000000e+04
1.592400000000000000e+04
1.596000000000000000e+04
1.598400000000000000e+04
1.602000000000000000e+04
1.604400000000000000e+04
1.608000000000000000e+04
1.610400000000000000e+04
1.614000000000000000e+04
1.616400000000000000e+04
1.620000000000000000e+04
1.622400000000000000e+04
1.626000000000000000e+04
1.628400000000000000e+04
1.632000000000000000e+04
1.634400000000000000e+04
1.638000000000000000e+04
1.640400000000000000e+04
1.644000000000000000e+04
1.646400000000000000e+04
1.650000000000000000e+04
1.652400000000000000e+04
1.656000000000000000e+04
1.658400000000000000e+04
1.662000000000000000e+04
1.664400000000000000e+04
1.668000000000000000e+04
1.670400000000000000e+04
1.674000000000000000e+04
1.676400000000000000e+04
1.680000000000000000e+04
1.682400000000000000e+04
1.686000000000000000e+04
1.688400000000000000e+04
1.692000000000000000e+04
1.694400000000000000e+04
1.698000000000000000e+04
1.700400000000000000e+04
1.704000000000000000e+04
1.706400000000000000e+04
1.710000000000000000e+04
1.712400000000000000e+04
1.716000000000000000e+04
1.718400000000000000e+04
1.722000000000000000e+04
1.724400000000000000e+04
1.728000000000000000e+04
1.730400000000000000e+04
1.734000000000000000e+04
1.736400000000000000e+04
1.740000000000000000e+04
1.742400000000000000e+04
1.746000000000000000e+04
1.748400000000000000e+04
1.752000000000000000e+04
1.754400000000000000e+04
1.758000000000000000e+04
1.760400000000000000e+04
1.764000000000000000e+04
1.766400000000000000e+04
1.770000000000000000e+04
1.772400000000000000e+04
1.776000000000000000e+04
1.778400000000000000e+04
1.782000000000000000e+04
1.784400000000000000e+04
1.788000000000000000e+04
1.790400000000000000e+04
1.794000000000000000e+04
1.796400000000000000e+04
1.800000000000000000e+04
1.802400000000000000e+04
1.806000000000000000e+04
1.808400000000000000e+04
1.812000000000000000e+04
1.814400000000000000e+04
1.818000000000000000e+04
1.820400000000000000e+04
1.824000000000000000e+04
1.826400000000000000e+04
1.830000000000000000e+04
1.832400000000000000e+04
1.836000000000000000e+04
1.838400000000000000e+04
1.842000000000000000e+04
1.844400000000000000e+04
1.848000000000000000e+04
1.850400000000000000e+04
1.854000000000000000e+04
1.856400000000000000e+04
1.860000000000000000e+04
1.862400000000000000e+04
1.866000000000000000e+04
1.868400000000000000e+04
1.872000000000000000e+04
1.874400000000000000e+04
1.878000000000000000e+04
1.880400000000000000e+04
1.884000000000000000e+04
1.886400000000000000e+04
1.890000000000000000e+04
1.892400000000000000e+04
1.896000000000000000e+04
1.898400000000000000e+04
1.902000000000000000e+04
1.904400000000000000e+04
1.908000000000000000e+04
1.910400000000000000e+04
1.914000000000000000e+04
1.916400000000000000e+04
1.920000000000000000e+04
1.922400000000000000e+04
1.926000000000000000e+04
1.928400000000000000e+04
1.932000000000000000e+04
1.934400000000000000e+04
1.938000000000000000e+04
1.940400000000000000e+04
1.944000000000000000e+04
1.946400000000000000e+04
1.950000000000000000e+04
1.952400000000000000e+04
1.956000000000000000e+04
1.958400000000000000e+04
1.962000000000000000e+04
1.964400000000000000e+04
1.968000000000000000e+04
1.970400000000000000e+04
1.974000000000000000e+04
1.976400000000000000e+04
1.980000000000000000e+04
1.982400000000000000e+04
1.986000000000000000e+04
1.988400000000000000e+04
1.992000000000000000e+04
1.994400000000000000e+04
1.998000000000000000e+04
2.000400000000000000e+04
2.004000000000000000e+04
2.006400000000000000e+04
2.010000000000000000e+04
2.012400000000000000e+04
2.016000000000000000e+04
2.018400000000000000e+04
2.022000000000000000e+04
2.024400000000000000e+04
2.028000000000000000e+04
2.030400000000000000e+04
2.034000000000000000e+04
2.036400000000000000e+04
2.040000000000000000e+04
2.042400000000000000e+04
2.046000000000000000e+04
2.048400000000000000e+04
2.052000000000000000e+04
2.054400000000000000e+04
2.058000000000000000e+04
2.060400000000000000e+04
2.064000000000000000e+04
2.066400000000000000e+04
2.070000000000000000e+04
2.072400000000000000e+04
2.076000000000000000e+04
2.078400000000000000e+04
2.082000000000000000e+04
2.084400000000000000e+04
2.088000000000000000e+04
2.090400000000000000e+04
2.094000000000000000e+04
2.096400000000000000e+04
2.100000000000000000e+04
2.102400000000000000e+04
2.106000000000000000e+04
2.108400000000000000e+04
2.112000000000000000e+04
2.114400000000000000e+04
2.118000000000000000e+04
2.120400000000000000e+04
2.124000000000000000e+04
2.126400000000000000e+04
2.130000000000000000e+04
2.132400000000000000e+04
2.136000000000000000e+04
2.138400000000000000e+04
2.142000000000000000e+04
2.144400000000000000e+04
2.148000000000000000e+04
2.150400000000000000e+04
2.154000000000000000e+04
2.156400000000000000e+04
2.160000000000000000e+04
2.162400000000000000e+04
2.166000000000000000e+04
2.168400000000000000e+04
2.172000000000000000e+04
2.174400000000000000e+04
2.178000000000000000e+04
2.180400000000000000e+04
2.184000000000000000e+04
2.186400000000000000e+04
2.190000000000000000e+04
2.192400000000000000e+04
2.196000000000000000e+04
2.198400000000000000e+04
2.202000000000000000e+04
2.204400000000000000e+04
2.208000000000000000e+04
2.210400000000000000e+04
2.214000000000000000e+04
2.216400000000000000e+04
2.220000000000000000e+04
2.222400000000000000e+04
2.226000000000000000e+04
2.228400000000000000e+04
2.232000000000000000e+04
2.234400000000000000e+04
2.238000000000000000e+04
2.240400000000000000e+04
2.244000000000000000e+04
2.246400000000000000e+04
2.250000000000000000e+04
2.252400000000000000e+04
2.256000000000000000e+04
2.258400000000000000e+04
2.262000000000000000e+04
2.264400000000000000e+04
2.268000000000000000e+04
2.270400000000000000e+04
2.274000000000000000e+04
2.276400000000000000e+04
2.280000000000000000e+04
2.282400000000000000e+04
2.286000000000000000e+04
2.288400000000000000e+04
2.292000000000000000e+04
2.294400000000000000e+04
2.298000000000000000e+04
2.300400000000000000e+04
2.304000000000000000e+04
2.306400000000000000e+04
2.310000000000000000e+04
2.312400000000000000e+04
2.316000000000000000e+04
2.318400000000000000e+04
2.322000000000000000e+04
2.324400000000000000e+04
2.328000000000000000e+04
2.330400000000000000e+04
2.334000000000000000e+04
2.336400000000000000e+04
